module gitlab.com/nachtjasmin/mastodon-alt-text-reminder-bot

go 1.19

require github.com/mattn/go-mastodon v0.0.6

require (
	github.com/gorilla/websocket v1.5.0 // indirect
	github.com/tomnomnom/linkheader v0.0.0-20180905144013-02ca5825eb80 // indirect
)
